<?xml version="1.0" encoding="UTF-8"?>
<glyph name="at" format="2">
	<advance width="886"/>
	<unicode hex="0040"/>
	<outline>
		<contour>
			<point x="387" y="-75" type="curve" smooth="yes"/>
			<point x="504" y="-75"/>
			<point x="579" y="-32"/>
			<point x="635" y="9" type="curve"/>
			<point x="609" y="48" type="line"/>
			<point x="565" y="16"/>
			<point x="495" y="-21"/>
			<point x="400" y="-21" type="curve" smooth="yes"/>
			<point x="198" y="-21"/>
			<point x="110" y="144"/>
			<point x="110" y="275" type="curve" smooth="yes"/>
			<point x="110" y="448"/>
			<point x="263" y="648"/>
			<point x="481" y="648" type="curve" smooth="yes"/>
			<point x="658" y="648"/>
			<point x="767" y="515"/>
			<point x="767" y="357" type="curve" smooth="yes"/>
			<point x="767" y="224"/>
			<point x="690" y="171"/>
			<point x="645" y="171" type="curve" smooth="yes"/>
			<point x="601" y="171"/>
			<point x="580" y="220"/>
			<point x="604" y="301" type="curve" smooth="yes"/>
			<point x="657" y="480" type="line"/>
			<point x="586" y="480" type="line"/>
			<point x="562" y="493"/>
			<point x="526" y="505"/>
			<point x="487" y="505" type="curve" smooth="yes"/>
			<point x="369" y="505"/>
			<point x="256" y="398"/>
			<point x="243" y="293" type="curve" smooth="yes"/>
			<point x="232" y="202"/>
			<point x="296" y="118"/>
			<point x="378" y="118" type="curve" smooth="yes"/>
			<point x="431" y="118"/>
			<point x="486" y="154"/>
			<point x="518" y="191" type="curve"/>
			<point x="533" y="146"/>
			<point x="566" y="113"/>
			<point x="615" y="113" type="curve" smooth="yes"/>
			<point x="694" y="113"/>
			<point x="845" y="196"/>
			<point x="845" y="377" type="curve" smooth="yes"/>
			<point x="845" y="546"/>
			<point x="712" y="707"/>
			<point x="508" y="707" type="curve" smooth="yes"/>
			<point x="282" y="707"/>
			<point x="41" y="509"/>
			<point x="41" y="254" type="curve" smooth="yes"/>
			<point x="41" y="62"/>
			<point x="178" y="-75"/>
		</contour>
		<contour>
			<point x="408" y="173" type="curve" smooth="yes"/>
			<point x="351" y="173"/>
			<point x="316" y="243"/>
			<point x="327" y="324" type="curve" smooth="yes"/>
			<point x="340" y="416"/>
			<point x="405" y="467"/>
			<point x="469" y="467" type="curve" smooth="yes"/>
			<point x="519" y="467"/>
			<point x="544" y="439"/>
			<point x="556" y="422" type="curve"/>
			<point x="504" y="236" type="line"/>
			<point x="478" y="203"/>
			<point x="445" y="173"/>
		</contour>
	</outline>
</glyph>
