<?xml version="1.0" encoding="UTF-8"?>
<glyph name="endash.001" format="2">
	<advance width="700"/>
	<outline>
		<contour>
			<point x="553" y="285" type="curve"/>
			<point x="146" y="285" type="line"/>
			<point x="128" y="285"/>
			<point x="117" y="275"/>
			<point x="117" y="260" type="curve" smooth="yes"/>
			<point x="117" y="245"/>
			<point x="128" y="235"/>
			<point x="146" y="235" type="curve"/>
			<point x="553" y="235" type="line"/>
			<point x="571" y="235"/>
			<point x="582" y="245"/>
			<point x="582" y="260" type="curve" smooth="yes"/>
			<point x="582" y="275"/>
			<point x="571" y="285"/>
		</contour>
	</outline>
</glyph>
