<?xml version="1.0" encoding="UTF-8"?>
<glyph name="T" format="2">
	<advance width="700"/>
	<unicode hex="0054"/>
	<note>
		T
	</note>
	<outline>
		<contour>
			<point x="100" y="600" type="line"/>
			<point x="300" y="600" type="line"/>
			<point x="300" y="0" type="line"/>
			<point x="400" y="0" type="line"/>
			<point x="400" y="600" type="line"/>
			<point x="600" y="600" type="line"/>
			<point x="600" y="700" type="line"/>
			<point x="100" y="700" type="line"/>
		</contour>
	</outline>
</glyph>
