<?xml version="1.0" encoding="UTF-8"?>
<glyph name="exclamdown" format="2">
	<advance width="1400"/>
	<unicode hex="00A1"/>
	<outline>
		<contour>
			<point x="750" y="700" type="line"/>
			<point x="650" y="700" type="line"/>
			<point x="650" y="600" type="line"/>
			<point x="750" y="600" type="line"/>
		</contour>
		<contour>
			<point x="750" y="500" type="line"/>
			<point x="650" y="500" type="line"/>
			<point x="650" y="0" type="line"/>
			<point x="750" y="0" type="line"/>
		</contour>
	</outline>
</glyph>
