<?xml version="1.0" encoding="UTF-8"?>
<glyph name="three" format="2">
	<advance width="700"/>
	<unicode hex="0033"/>
	<note>
		three
	</note>
	<outline>
		<contour>
			<point x="400" y="700" type="line"/>
			<point x="400" y="500" type="line"/>
			<point x="600" y="500" type="line"/>
			<point x="600" y="700" type="line"/>
		</contour>
		<contour>
			<point x="100" y="700" type="line"/>
			<point x="100" y="600" type="line"/>
			<point x="400" y="600" type="line"/>
			<point x="400" y="700" type="line"/>
		</contour>
		<contour>
			<point x="100" y="600" type="line"/>
			<point x="100" y="500" type="line"/>
			<point x="200" y="500" type="line"/>
			<point x="200" y="600" type="line"/>
		</contour>
		<contour>
			<point x="300" y="500" type="line"/>
			<point x="300" y="400" type="line"/>
			<point x="500" y="400" type="line"/>
			<point x="500" y="500" type="line"/>
		</contour>
		<contour>
			<point x="200" y="400" type="line"/>
			<point x="200" y="300" type="line"/>
			<point x="400" y="300" type="line"/>
			<point x="400" y="400" type="line"/>
		</contour>
		<contour>
			<point x="400" y="300" type="line"/>
			<point x="400" y="100" type="line"/>
			<point x="600" y="100" type="line"/>
			<point x="600" y="300" type="line"/>
		</contour>
		<contour>
			<point x="200" y="100" type="line"/>
			<point x="200" y="0" type="line"/>
			<point x="500" y="0" type="line"/>
			<point x="500" y="100" type="line"/>
		</contour>
		<contour>
			<point x="100" y="200" type="line"/>
			<point x="100" y="100" type="line"/>
			<point x="300" y="100" type="line"/>
			<point x="300" y="200" type="line"/>
		</contour>
	</outline>
</glyph>
