<?xml version="1.0" encoding="UTF-8"?>
<glyph name="D" format="2">
	<advance width="1047"/>
	<unicode hex="0044"/>
	<guideline x="367" y="0" angle="60"/>
	<guideline x="334" y="0" angle="60"/>
	<guideline x="401" y="-15" angle="0"/>
	<outline>
		<contour>
			<point x="247" y="-15" type="curve" smooth="yes"/>
			<point x="330" y="-12"/>
			<point x="387" y="35"/>
			<point x="493" y="217" type="curve" smooth="yes"/>
			<point x="524" y="270"/>
			<point x="572" y="357"/>
			<point x="615" y="431" type="curve" smooth="yes"/>
			<point x="693" y="565"/>
			<point x="763" y="699"/>
			<point x="896" y="777" type="curve" smooth="yes"/>
			<point x="983" y="828"/>
			<point x="926" y="912"/>
			<point x="868" y="882" type="curve" smooth="yes"/>
			<point x="839" y="867"/>
			<point x="830" y="861"/>
			<point x="770" y="756" type="curve" smooth="yes"/>
			<point x="730" y="686"/>
			<point x="662" y="568"/>
			<point x="589" y="442" type="curve" smooth="yes"/>
			<point x="553" y="380"/>
			<point x="505" y="293"/>
			<point x="470" y="236" type="curve" smooth="yes"/>
			<point x="389" y="103"/>
			<point x="330" y="14"/>
			<point x="246" y="13" type="curve" smooth="yes"/>
			<point x="181" y="12"/>
			<point x="134" y="100"/>
			<point x="137" y="235" type="curve" smooth="yes"/>
			<point x="144" y="579"/>
			<point x="453" y="992"/>
			<point x="803" y="992" type="curve" smooth="yes"/>
			<point x="967" y="992"/>
			<point x="1114" y="863"/>
			<point x="1114" y="645" type="curve" smooth="yes"/>
			<point x="1114" y="347"/>
			<point x="884" y="13"/>
			<point x="635" y="13" type="curve" smooth="yes"/>
			<point x="595" y="13"/>
			<point x="557" y="22"/>
			<point x="557" y="48" type="curve" smooth="yes"/>
			<point x="557" y="142"/>
			<point x="1016" y="101"/>
			<point x="1169" y="270" type="curve"/>
			<point x="1149" y="290" type="line"/>
			<point x="993" y="120"/>
			<point x="526" y="181"/>
			<point x="529" y="47" type="curve" smooth="yes"/>
			<point x="530" y="8"/>
			<point x="579" y="-15"/>
			<point x="632" y="-15" type="curve" smooth="yes"/>
			<point x="905" y="-15"/>
			<point x="1142" y="329"/>
			<point x="1142" y="648" type="curve" smooth="yes"/>
			<point x="1142" y="888"/>
			<point x="984" y="1019"/>
			<point x="803" y="1018" type="curve" smooth="yes"/>
			<point x="435" y="1016"/>
			<point x="118" y="602"/>
			<point x="106" y="235" type="curve" smooth="yes"/>
			<point x="101" y="80"/>
			<point x="156" y="-18"/>
		</contour>
	</outline>
</glyph>
