<?xml version="1.0" encoding="UTF-8"?>
<glyph name="S" format="2">
	<advance width="850"/>
	<unicode hex="0053"/>
	<guideline x="523" y="-65" angle="60"/>
	<guideline x="553" y="-74" angle="60"/>
	<guideline x="432" y="368" angle="217.6659"/>
	<outline>
		<contour>
			<point x="336" y="-10" type="curve" smooth="yes"/>
			<point x="532" y="-10"/>
			<point x="737" y="123"/>
			<point x="918" y="705" type="curve"/>
			<point x="1088" y="867" type="line" smooth="yes"/>
			<point x="1191" y="966"/>
			<point x="1148" y="1022"/>
			<point x="1094" y="1021" type="curve" smooth="yes"/>
			<point x="1012" y="1019"/>
			<point x="948" y="934"/>
			<point x="892" y="722" type="curve"/>
			<point x="489" y="400" type="line" smooth="yes"/>
			<point x="168" y="144"/>
			<point x="79" y="89"/>
			<point x="-20" y="19" type="curve"/>
			<point x="-5" y="0" type="line"/>
			<point x="91" y="71"/>
			<point x="185" y="124"/>
			<point x="507" y="381" type="curve" smooth="yes"/>
			<point x="878" y="677" type="line"/>
			<point x="708" y="134"/>
			<point x="504" y="16"/>
			<point x="336" y="16" type="curve" smooth="yes"/>
			<point x="203" y="16"/>
			<point x="106" y="84"/>
			<point x="106" y="175" type="curve" smooth="yes"/>
			<point x="106" y="230"/>
			<point x="145" y="283"/>
			<point x="232" y="283" type="curve" smooth="yes"/>
			<point x="382" y="283"/>
			<point x="519" y="86"/>
			<point x="675" y="86" type="curve" smooth="yes"/>
			<point x="785" y="86"/>
			<point x="856" y="134"/>
			<point x="973" y="270" type="curve"/>
			<point x="953" y="290" type="line"/>
			<point x="836" y="153"/>
			<point x="781" y="114"/>
			<point x="675" y="114" type="curve" smooth="yes"/>
			<point x="532" y="114"/>
			<point x="395" y="310"/>
			<point x="233" y="310" type="curve" smooth="yes"/>
			<point x="146" y="310"/>
			<point x="79" y="257"/>
			<point x="79" y="175" type="curve" smooth="yes"/>
			<point x="79" y="56"/>
			<point x="191" y="-10"/>
		</contour>
	</outline>
</glyph>
