<?xml version="1.0" encoding="UTF-8"?>
<glyph name="Agrave" format="2">
	<advance width="700"/>
	<unicode hex="00C0"/>
	<outline>
		<contour>
			<point x="100" y="0" type="line"/>
			<point x="100" y="100" type="line"/>
			<point x="400" y="100" type="line"/>
			<point x="400" y="0" type="line"/>
			<point x="500" y="0" type="line"/>
			<point x="500" y="200" type="line"/>
			<point x="200" y="200" type="line"/>
			<point x="200" y="400" type="line"/>
			<point x="100" y="400" type="line"/>
			<point x="100" y="200" type="line"/>
			<point x="0" y="200" type="line"/>
			<point x="0" y="0" type="line"/>
		</contour>
		<contour>
			<point x="600" y="200" type="line"/>
			<point x="600" y="400" type="line"/>
			<point x="500" y="400" type="line"/>
			<point x="500" y="500" type="line"/>
			<point x="200" y="500" type="line"/>
			<point x="200" y="400" type="line"/>
			<point x="500" y="400" type="line"/>
			<point x="500" y="200" type="line"/>
		</contour>
		<contour>
			<point x="400" y="700" type="line"/>
			<point x="400" y="600" type="line"/>
			<point x="500" y="600" type="line"/>
			<point x="500" y="700" type="line"/>
			<point x="400" y="700" type="line"/>
			<point x="400" y="800" type="line"/>
			<point x="300" y="800" type="line"/>
			<point x="300" y="700" type="line"/>
		</contour>
	</outline>
</glyph>
