<?xml version="1.0" encoding="UTF-8"?>
<glyph name="edieresis" format="2">
	<advance width="700"/>
	<unicode hex="00EB"/>
	<outline>
		<contour>
			<point x="373" y="27" type="curve" smooth="yes"/>
			<point x="250" y="27"/>
			<point x="208" y="161"/>
			<point x="208" y="247" type="curve"/>
			<point x="561" y="247" type="line"/>
			<point x="567" y="247"/>
			<point x="582" y="247"/>
			<point x="582" y="264" type="curve" smooth="yes"/>
			<point x="582" y="433"/>
			<point x="478" y="509"/>
			<point x="358" y="509" type="curve" smooth="yes"/>
			<point x="210" y="509"/>
			<point x="128" y="375"/>
			<point x="128" y="247" type="curve" smooth="yes"/>
			<point x="128" y="67"/>
			<point x="255" y="-3"/>
			<point x="362" y="-3" type="curve" smooth="yes"/>
			<point x="426" y="-3"/>
			<point x="481" y="14"/>
			<point x="541" y="80" type="curve" smooth="yes"/>
			<point x="579" y="121"/>
			<point x="580" y="137"/>
			<point x="566" y="145" type="curve" smooth="yes"/>
			<point x="556" y="151"/>
			<point x="545" y="139"/>
			<point x="535" y="127" type="curve" smooth="yes"/>
			<point x="495" y="79"/>
			<point x="450" y="27"/>
		</contour>
		<contour>
			<point x="211" y="309" type="curve" smooth="yes"/>
			<point x="220" y="367"/>
			<point x="252" y="479"/>
			<point x="359" y="479" type="curve" smooth="yes"/>
			<point x="484" y="479"/>
			<point x="502" y="334"/>
			<point x="502" y="277" type="curve"/>
			<point x="226" y="277" type="line" smooth="yes"/>
			<point x="208" y="277"/>
			<point x="209" y="296"/>
		</contour>
		<contour>
			<point x="241" y="622" type="curve" smooth="yes"/>
			<point x="270" y="622"/>
			<point x="294" y="644"/>
			<point x="294" y="672" type="curve" smooth="yes"/>
			<point x="294" y="701"/>
			<point x="270" y="723"/>
			<point x="241" y="723" type="curve" smooth="yes"/>
			<point x="213" y="723"/>
			<point x="189" y="701"/>
			<point x="189" y="672" type="curve" smooth="yes"/>
			<point x="189" y="644"/>
			<point x="213" y="622"/>
		</contour>
		<contour>
			<point x="475" y="622" type="curve" smooth="yes"/>
			<point x="504" y="622"/>
			<point x="528" y="644"/>
			<point x="528" y="672" type="curve" smooth="yes"/>
			<point x="528" y="701"/>
			<point x="504" y="723"/>
			<point x="475" y="723" type="curve" smooth="yes"/>
			<point x="446" y="723"/>
			<point x="422" y="701"/>
			<point x="422" y="672" type="curve" smooth="yes"/>
			<point x="422" y="644"/>
			<point x="446" y="622"/>
		</contour>
	</outline>
</glyph>
